\relax 
\@writefile{toc}{\contentsline {section}{\numberline {1}colores en texto}{1}}
\@writefile{toc}{\contentsline {section}{\numberline {2}Colores en RGB}{1}}
\@writefile{toc}{\contentsline {section}{\numberline {3}colores en CMYK}{1}}
\@writefile{toc}{\contentsline {section}{\numberline {4}colores en gris}{1}}
\@writefile{toc}{\contentsline {section}{\numberline {5}Crear un nuevo color}{1}}
\@writefile{toc}{\contentsline {section}{\numberline {6}cajas de colores}{1}}
\@writefile{toc}{\contentsline {section}{\numberline {7}colores en textos}{1}}
