\relax 
\@writefile{toc}{\contentsline {section}{\numberline {1}ejercicios latex integrales}{1}}
\@writefile{toc}{\contentsline {section}{\numberline {2}Tablas en modo matematico}{1}}
\@writefile{toc}{\contentsline {section}{\numberline {3}tablas en modo texto}{1}}
\@writefile{toc}{\contentsline {section}{\numberline {4}Agrupacion en vertical}{1}}
