\relax 
\@writefile{toc}{\contentsline {section}{\numberline {1}espacios verticales}{1}}
\@writefile{toc}{\contentsline {section}{\numberline {2}Parrafos}{1}}
\@writefile{toc}{\contentsline {subsection}{\numberline {2.1}derecha}{1}}
\@writefile{toc}{\contentsline {subsection}{\numberline {2.2}izquierda}{1}}
