\relax 
\@writefile{toc}{\contentsline {part}{I\hspace  {1em}primera parte}{3}}
\@writefile{toc}{\contentsline {chapter}{\numberline {1}el primer capitulo}{5}}
\@writefile{lof}{\addvspace {10\p@ }}
\@writefile{lot}{\addvspace {10\p@ }}
\@writefile{toc}{\contentsline {section}{\numberline {1.1}primer capitulo seccion primera}{5}}
\@writefile{toc}{\contentsline {section}{\numberline {1.2}primer capitulo seccion segunda}{5}}
\@writefile{toc}{\contentsline {subsection}{\numberline {1.2.1}primer capitulo seccion segunda subseccion1}{5}}
\@writefile{toc}{\contentsline {subsubsection}{primer capitulo seccion segunda subsubseccion}{5}}
\@writefile{toc}{\contentsline {paragraph}{primer capitulo seccion segunda parrafo}{5}}
\@writefile{toc}{\contentsline {subparagraph}{primer capitulo seccion segunda subparrafo}{6}}
\@writefile{toc}{\contentsline {section}{\numberline {1.3}primer capitulo seccion tercera}{7}}
