\contentsline {part}{I\hspace {1em}primera parte}{3}
\contentsline {chapter}{\numberline {1}el primer capitulo}{5}
\contentsline {section}{\numberline {1.1}primer capitulo seccion primera}{5}
\contentsline {section}{\numberline {1.2}primer capitulo seccion segunda}{5}
\contentsline {subsection}{\numberline {1.2.1}primer capitulo seccion segunda subseccion1}{5}
\contentsline {subsubsection}{primer capitulo seccion segunda subsubseccion}{5}
\contentsline {paragraph}{primer capitulo seccion segunda parrafo}{5}
\contentsline {subparagraph}{primer capitulo seccion segunda subparrafo}{6}
\contentsline {section}{\numberline {1.3}primer capitulo seccion tercera}{7}
